^D:\USERS\LPDUGAS\SHOW-CANADA-FILES\LP-FILES\MYGITHUB\FACETRACKING\FACETRACKING\FACETRACKING\MAIN.CPP
/c /ID:\USERS\LPDUGAS\DOCUMENTS\LIBRAIRIES\OPENCV\BUILD\INCLUDE /ZI /nologo /W3 /WX- /diagnostics:classic /sdl /Od /D _MBCS /Gm /EHsc /RTC1 /MDd /GS /fp:precise /Zc:wchar_t /Zc:forScope /Zc:inline /Fo"X64\DEBUG\\" /Fd"X64\DEBUG\VC141.PDB" /Gd /TP D:\USERS\LPDUGAS\SHOW-CANADA-FILES\LP-FILES\MYGITHUB\FACETRACKING\FACETRACKING\FACETRACKING\MAIN.CPP
^D:\USERS\LPDUGAS\SHOW-CANADA-FILES\LP-FILES\MYGITHUB\FACETRACKING\FACETRACKING\FACETRACKING\TASK1.CPP
/c /ID:\USERS\LPDUGAS\DOCUMENTS\LIBRAIRIES\OPENCV\BUILD\INCLUDE /ZI /nologo /W3 /WX- /diagnostics:classic /sdl /Od /D _MBCS /Gm /EHsc /RTC1 /MDd /GS /fp:precise /Zc:wchar_t /Zc:forScope /Zc:inline /Fo"X64\DEBUG\\" /Fd"X64\DEBUG\VC141.PDB" /Gd /TP D:\USERS\LPDUGAS\SHOW-CANADA-FILES\LP-FILES\MYGITHUB\FACETRACKING\FACETRACKING\FACETRACKING\TASK1.CPP
^D:\USERS\LPDUGAS\SHOW-CANADA-FILES\LP-FILES\MYGITHUB\FACETRACKING\FACETRACKING\FACETRACKING\TASK2.CPP
/c /ID:\USERS\LPDUGAS\DOCUMENTS\LIBRAIRIES\OPENCV\BUILD\INCLUDE /ZI /nologo /W3 /WX- /diagnostics:classic /sdl /Od /D _MBCS /Gm /EHsc /RTC1 /MDd /GS /fp:precise /Zc:wchar_t /Zc:forScope /Zc:inline /Fo"X64\DEBUG\\" /Fd"X64\DEBUG\VC141.PDB" /Gd /TP D:\USERS\LPDUGAS\SHOW-CANADA-FILES\LP-FILES\MYGITHUB\FACETRACKING\FACETRACKING\FACETRACKING\TASK2.CPP
^D:\USERS\LPDUGAS\SHOW-CANADA-FILES\LP-FILES\MYGITHUB\FACETRACKING\FACETRACKING\FACETRACKING\WEBCAM.CPP
/c /ID:\USERS\LPDUGAS\DOCUMENTS\LIBRAIRIES\OPENCV\BUILD\INCLUDE /ZI /nologo /W3 /WX- /diagnostics:classic /sdl /Od /D _MBCS /Gm /EHsc /RTC1 /MDd /GS /fp:precise /Zc:wchar_t /Zc:forScope /Zc:inline /Fo"X64\DEBUG\\" /Fd"X64\DEBUG\VC141.PDB" /Gd /TP D:\USERS\LPDUGAS\SHOW-CANADA-FILES\LP-FILES\MYGITHUB\FACETRACKING\FACETRACKING\FACETRACKING\WEBCAM.CPP
