^D:\USERS\LPDUGAS\SHOW-CANADA-FILES\LP-FILES\MYGITHUB\FACETRACKING\FACETRACKING\FACETRACKING\X64\DEBUG\MAIN.OBJ
/OUT:"D:\USERS\LPDUGAS\SHOW-CANADA-FILES\LP-FILES\MYGITHUB\FACETRACKING\FACETRACKING\X64\DEBUG\FACETRACKING.EXE" /INCREMENTAL /NOLOGO /LIBPATH:D:\USERS\LPDUGAS\DOCUMENTS\LIBRAIRIES\OPENCV\BUILD\X64\VC14\LIB OPENCV_WORLD330.LIB OPENCV_WORLD330D.LIB KERNEL32.LIB USER32.LIB GDI32.LIB WINSPOOL.LIB COMDLG32.LIB ADVAPI32.LIB SHELL32.LIB OLE32.LIB OLEAUT32.LIB UUID.LIB ODBC32.LIB ODBCCP32.LIB KERNEL32.LIB USER32.LIB GDI32.LIB WINSPOOL.LIB COMDLG32.LIB ADVAPI32.LIB SHELL32.LIB OLE32.LIB OLEAUT32.LIB UUID.LIB ODBC32.LIB ODBCCP32.LIB /MANIFEST /MANIFESTUAC:"level='asInvoker' uiAccess='false'" /manifest:embed /DEBUG:FASTLINK /PDB:"D:\USERS\LPDUGAS\SHOW-CANADA-FILES\LP-FILES\MYGITHUB\FACETRACKING\FACETRACKING\X64\DEBUG\FACETRACKING.PDB" /TLBID:1 /DYNAMICBASE /NXCOMPAT /IMPLIB:"D:\USERS\LPDUGAS\SHOW-CANADA-FILES\LP-FILES\MYGITHUB\FACETRACKING\FACETRACKING\X64\DEBUG\FACETRACKING.LIB" /MACHINE:X64 X64\DEBUG\MAIN.OBJ
^D:\USERS\LPDUGAS\SHOW-CANADA-FILES\LP-FILES\MYGITHUB\FACETRACKING\FACETRACKING\FACETRACKING\X64\DEBUG\MAIN.OBJ|D:\USERS\LPDUGAS\SHOW-CANADA-FILES\LP-FILES\MYGITHUB\FACETRACKING\FACETRACKING\FACETRACKING\X64\DEBUG\TASK1.OBJ|D:\USERS\LPDUGAS\SHOW-CANADA-FILES\LP-FILES\MYGITHUB\FACETRACKING\FACETRACKING\FACETRACKING\X64\DEBUG\TASK2.OBJ|D:\USERS\LPDUGAS\SHOW-CANADA-FILES\LP-FILES\MYGITHUB\FACETRACKING\FACETRACKING\FACETRACKING\X64\DEBUG\WEBCAM.OBJ
/OUT:"D:\USERS\LPDUGAS\SHOW-CANADA-FILES\LP-FILES\MYGITHUB\FACETRACKING\FACETRACKING\X64\DEBUG\FACETRACKING.EXE" /INCREMENTAL /NOLOGO /LIBPATH:D:\USERS\LPDUGAS\DOCUMENTS\LIBRAIRIES\OPENCV\BUILD\X64\VC14\LIB OPENCV_WORLD330.LIB OPENCV_WORLD330D.LIB KERNEL32.LIB USER32.LIB GDI32.LIB WINSPOOL.LIB COMDLG32.LIB ADVAPI32.LIB SHELL32.LIB OLE32.LIB OLEAUT32.LIB UUID.LIB ODBC32.LIB ODBCCP32.LIB KERNEL32.LIB USER32.LIB GDI32.LIB WINSPOOL.LIB COMDLG32.LIB ADVAPI32.LIB SHELL32.LIB OLE32.LIB OLEAUT32.LIB UUID.LIB ODBC32.LIB ODBCCP32.LIB /MANIFEST /MANIFESTUAC:"level='asInvoker' uiAccess='false'" /manifest:embed /DEBUG:FASTLINK /PDB:"D:\USERS\LPDUGAS\SHOW-CANADA-FILES\LP-FILES\MYGITHUB\FACETRACKING\FACETRACKING\X64\DEBUG\FACETRACKING.PDB" /TLBID:1 /DYNAMICBASE /NXCOMPAT /IMPLIB:"D:\USERS\LPDUGAS\SHOW-CANADA-FILES\LP-FILES\MYGITHUB\FACETRACKING\FACETRACKING\X64\DEBUG\FACETRACKING.LIB" /MACHINE:X64 X64\DEBUG\MAIN.OBJX64\DEBUG\TASK1.OBJX64\DEBUG\TASK2.OBJX64\DEBUG\WEBCAM.OBJ
